Hurricane Milton Abnormality – GEO511_FinalProject
…
$`Beryl-1988`
# A tibble: 4 × 2
  fips  events   
  <chr> <list>   
1 48147 <chr [1]>
2 48217 <chr [1]>
3 48309 <chr [1]>
4 48453 <chr [2]>

$`Chris-1988`
# A tibble: 48 × 2
   fips  events   
   <chr> <list>   
 1 12057 <chr [1]>
 2 12101 <chr [1]>
 3 12115 <chr [1]>
 4 33009 <chr [2]>
 5 33019 <chr [1]>
 6 34001 <chr [2]>
 7 34005 <chr [1]>
 8 34011 <chr [1]>
 9 34029 <chr [1]>
10 36007 <chr [2]>
# ℹ 38 more rows

$`Florence-1988`
# A tibble: 3 × 2
  fips  events   
  <chr> <list>   
1 12005 <chr [1]>
2 12131 <chr [3]>
3 48485 <chr [1]>

$`Gilbert-1988`
# A tibble: 73 × 2
   fips  events   
   <chr> <list>   
 1 17015 <chr [1]>
 2 17063 <chr [1]>
 3 17089 <chr [1]>
 4 17097 <chr [1]>
 5 17111 <chr [1]>
 6 17197 <chr [1]>
 7 17201 <chr [1]>
 8 18003 <chr [1]>
 9 18005 <chr [1]>
10 18007 <chr [1]>
# ℹ 63 more rows
…
